{
  "project_info": {
    "project_number": "301148957239",
    "firebase_url": "https://btchat-1a20e.firebaseio.com",
    "project_id": "btchat-1a20e",
    "storage_bucket": "btchat-1a20e.appspot.com"
  },
  "client": [
    {
      "client_info": {
        "mobilesdk_app_id": "1:301148957239:android:e4283b77212c32d7dc6db2",
        "android_client_info": {
          "package_name": "com.bender.btchat"
        }
      },
      "oauth_client": [
        {
          "client_id": "301148957239-3obfk63lekba8b2nmc4c0qk2alq0ajt0.apps.googleusercontent.com",
          "client_type": 3
        }
      ],
      "api_key": [
        {
          "current_key": "AIzaSyBoD1LXVDXTwjQSaT8l897q4brtxBp0f5s"
        }
      ],
      "services": {
        "appinvite_service": {
          "other_platform_oauth_client": [
            {
              "client_id": "301148957239-3obfk63lekba8b2nmc4c0qk2alq0ajt0.apps.googleusercontent.com",
              "client_type": 3
            }
          ]
        }
      }
    }
  ],
  "configuration_version": "1"
}